Introduction
…
derivation of MVP weights and MVE weights - not complicated, simply constrained linear programming.

once get two efficient weights, use the mutual fund separation theorem to get the whole frontier.

One stock

library(tidyverse)
library(tidyquant)
library(scales)
source(here::here('R/winsorize.R'))

prices <- tq_get("AAPL", get = 'stock.prices', from = '2000-01-01', to = '2022-12-31')
prices

# A tibble: 5,787 × 8
   symbol date        open  high   low close     volume adjusted
   <chr>  <date>     <dbl> <dbl> <dbl> <dbl>      <dbl>    <dbl>
 1 AAPL   2000-01-03 0.936 1.00  0.908 0.999  535796800    0.845
 2 AAPL   2000-01-04 0.967 0.988 0.903 0.915  512377600    0.774
 3 AAPL   2000-01-05 0.926 0.987 0.920 0.929  778321600    0.785
 4 AAPL   2000-01-06 0.948 0.955 0.848 0.848  767972800    0.717
 5 AAPL   2000-01-07 0.862 0.902 0.853 0.888  460734400    0.751
 6 AAPL   2000-01-10 0.911 0.913 0.846 0.873  505064000    0.738
 7 AAPL   2000-01-11 0.857 0.887 0.808 0.828  441548800    0.700
 8 AAPL   2000-01-12 0.848 0.853 0.772 0.778  976068800    0.658
 9 AAPL   2000-01-13 0.844 0.882 0.826 0.864 1032684800    0.730
10 AAPL   2000-01-14 0.893 0.913 0.887 0.897  390376000    0.758
# ℹ 5,777 more rows
…
returns <- prices %>% 
  arrange(date) %>% 
  mutate(ret = adjusted/lag(adjusted)-1) %>% 
  select(symbol, date, ret)
returns

# A tibble: 5,787 × 3
   symbol date           ret
   <chr>  <date>       <dbl>
 1 AAPL   2000-01-03 NA     
 2 AAPL   2000-01-04 -0.0843
 3 AAPL   2000-01-05  0.0146
 4 AAPL   2000-01-06 -0.0865
 5 AAPL   2000-01-07  0.0474
 6 AAPL   2000-01-10 -0.0176
 7 AAPL   2000-01-11 -0.0512
 8 AAPL   2000-01-12 -0.0600
 9 AAPL   2000-01-13  0.110 
10 AAPL   2000-01-14  0.0381
# ℹ 5,777 more rows
…
# A tibble: 1 × 4
  ret_daily_mean ret_daily_sd ret_daily_min ret_daily_max
           <dbl>        <dbl>         <dbl>         <dbl>
1        0.00120       0.0251        -0.519         0.139

Scale up

symbols <- tq_index('DOW') %>% 
  filter(company != 'US DOLLAR')

Getting holdings for DOW

symbols

# A tibble: 30 × 8
   symbol company      identifier sedol weight sector shares_held local_currency
   <chr>  <chr>        <chr>      <chr>  <dbl> <chr>        <dbl> <chr>         
 1 UNH    UNITEDHEALT… 91324P102  2917… 0.0830 -          5430458 USD           
 2 GS     GOLDMAN SAC… 38141G104  2407… 0.0776 -          5430458 USD           
 3 MSFT   MICROSOFT C… 594918104  2588… 0.0765 -          5430458 USD           
 4 HD     HOME DEPOT … 437076102  2434… 0.0558 -          5430458 USD           
 5 CAT    CATERPILLAR… 149123101  2180… 0.0546 -          5430458 USD           
 6 AMGN   AMGEN INC    031162100  2023… 0.0518 -          5430458 USD           
 7 V      VISA INC CL… 92826C839  B2PZ… 0.0447 -          5430458 USD           
 8 CRM    SALESFORCE … 79466L302  2310… 0.0427 -          5430458 USD           
 9 MCD    MCDONALD S … 580135101  2550… 0.0413 -          5430458 USD           
10 AXP    AMERICAN EX… 025816109  2026… 0.0393 -          5430458 USD           
# ℹ 20 more rows
…
all_returns %>% 
  group_by(symbol) %>% 
  summarise(across(ret, list(
    daily_mean = mean, 
    daily_sd = sd, 
    daily_min = min, 
    daily_max = max
  ), 
    .names = '{.fn}'))

# A tibble: 30 × 5
   symbol daily_mean daily_sd daily_min daily_max
   <chr>       <dbl>    <dbl>     <dbl>     <dbl>
 1 AAPL     0.00120    0.0251    -0.519     0.139
 2 AMGN     0.000489   0.0197    -0.134     0.151
 3 AMZN     0.00101    0.0319    -0.248     0.345
 4 AXP      0.000518   0.0229    -0.176     0.219
 5 BA       0.000595   0.0224    -0.238     0.243
 6 CAT      0.000709   0.0204    -0.145     0.147
 7 CRM      0.00110    0.0270    -0.271     0.260
 8 CSCO     0.000317   0.0237    -0.162     0.244
 9 CVX      0.000553   0.0176    -0.221     0.227
10 DIS      0.000418   0.0195    -0.184     0.160
# ℹ 20 more rows
…
